tooling/transcript
# vsim -do ./config/run.tcl -lib work -c -wlf ./waveform.wlf work.top 
# Loading work.top
# Loading work.alu
# Loading work.register
# do ./config/run.tcl 
# time =    0, oc = 000, a = 0000, b = 0000, f = 0000
# time =    0, cl = x, ld = x, in = xxxx, inc = x, dec = x, sr = x, ir = x, sl = x, il = x, out = 0000
# time =    5, oc = 000, a = 0000, b = 0001, f = 0001
# time =   10, oc = 000, a = 0000, b = 0010, f = 0010
# time =   15, oc = 000, a = 0000, b = 0011, f = 0011
# time =   20, oc = 000, a = 0000, b = 0100, f = 0100
# time =   25, oc = 000, a = 0000, b = 0101, f = 0101
# time =   30, oc = 000, a = 0000, b = 0110, f = 0110
# time =   35, oc = 000, a = 0000, b = 0111, f = 0111
# time =   40, oc = 000, a = 0000, b = 1000, f = 1000
# time =   45, oc = 000, a = 0000, b = 1001, f = 1001
# time =   50, oc = 000, a = 0000, b = 1010, f = 1010
# time =   55, oc = 000, a = 0000, b = 1011, f = 1011
# time =   60, oc = 000, a = 0000, b = 1100, f = 1100
# time =   65, oc = 000, a = 0000, b = 1101, f = 1101
# time =   70, oc = 000, a = 0000, b = 1110, f = 1110
# time =   75, oc = 000, a = 0000, b = 1111, f = 1111
# time =   80, oc = 000, a = 0001, b = 0000, f = 0001
# time =   85, oc = 000, a = 0001, b = 0001, f = 0010
# time =   90, oc = 000, a = 0001, b = 0010, f = 0011
# time =   95, oc = 000, a = 0001, b = 0011, f = 0100
# time =  100, oc = 000, a = 0001, b = 0100, f = 0101
# time =  105, oc = 000, a = 0001, b = 0101, f = 0110
# time =  110, oc = 000, a = 0001, b = 0110, f = 0111
# time =  115, oc = 000, a = 0001, b = 0111, f = 1000
# time =  120, oc = 000, a = 0001, b = 1000, f = 1001
# time =  125, oc = 000, a = 0001, b = 1001, f = 1010
# time =  130, oc = 000, a = 0001, b = 1010, f = 1011
# time =  135, oc = 000, a = 0001, b = 1011, f = 1100
# time =  140, oc = 000, a = 0001, b = 1100, f = 1101
# time =  145, oc = 000, a = 0001, b = 1101, f = 1110
# time =  150, oc = 000, a = 0001, b = 1110, f = 1111
# time =  155, oc = 000, a = 0001, b = 1111, f = 0000
# time =  160, oc = 000, a = 0010, b = 0000, f = 0010
# time =  165, oc = 000, a = 0010, b = 0001, f = 0011
# time =  170, oc = 000, a = 0010, b = 0010, f = 0100
# time =  175, oc = 000, a = 0010, b = 0011, f = 0101
# time =  180, oc = 000, a = 0010, b = 0100, f = 0110
# time =  185, oc = 000, a = 0010, b = 0101, f = 0111
# time =  190, oc = 000, a = 0010, b = 0110, f = 1000
# time =  195, oc = 000, a = 0010, b = 0111, f = 1001
# time =  200, oc = 000, a = 0010, b = 1000, f = 1010
# time =  205, oc = 000, a = 0010, b = 1001, f = 1011
# time =  210, oc = 000, a = 0010, b = 1010, f = 1100
# time =  215, oc = 000, a = 0010, b = 1011, f = 1101
# time =  220, oc = 000, a = 0010, b = 1100, f = 1110
# time =  225, oc = 000, a = 0010, b = 1101, f = 1111
# time =  230, oc = 000, a = 0010, b = 1110, f = 0000
# time =  235, oc = 000, a = 0010, b = 1111, f = 0001
# time =  240, oc = 000, a = 0011, b = 0000, f = 0011
# time =  245, oc = 000, a = 0011, b = 0001, f = 0100
# time =  250, oc = 000, a = 0011, b = 0010, f = 0101
# time =  255, oc = 000, a = 0011, b = 0011, f = 0110
# time =  260, oc = 000, a = 0011, b = 0100, f = 0111
# time =  265, oc = 000, a = 0011, b = 0101, f = 1000
# time =  270, oc = 000, a = 0011, b = 0110, f = 1001
# time =  275, oc = 000, a = 0011, b = 0111, f = 1010
# time =  280, oc = 000, a = 0011, b = 1000, f = 1011
# time =  285, oc = 000, a = 0011, b = 1001, f = 1100
# time =  290, oc = 000, a = 0011, b = 1010, f = 1101
# time =  295, oc = 000, a = 0011, b = 1011, f = 1110
# time =  300, oc = 000, a = 0011, b = 1100, f = 1111
# time =  305, oc = 000, a = 0011, b = 1101, f = 0000
# time =  310, oc = 000, a = 0011, b = 1110, f = 0001
# time =  315, oc = 000, a = 0011, b = 1111, f = 0010
# time =  320, oc = 000, a = 0100, b = 0000, f = 0100
# time =  325, oc = 000, a = 0100, b = 0001, f = 0101
# time =  330, oc = 000, a = 0100, b = 0010, f = 0110
# time =  335, oc = 000, a = 0100, b = 0011, f = 0111
# time =  340, oc = 000, a = 0100, b = 0100, f = 1000
# time =  345, oc = 000, a = 0100, b = 0101, f = 1001
# time =  350, oc = 000, a = 0100, b = 0110, f = 1010
# time =  355, oc = 000, a = 0100, b = 0111, f = 1011
# time =  360, oc = 000, a = 0100, b = 1000, f = 1100
# time =  365, oc = 000, a = 0100, b = 1001, f = 1101
# time =  370, oc = 000, a = 0100, b = 1010, f = 1110
# time =  375, oc = 000, a = 0100, b = 1011, f = 1111
# time =  380, oc = 000, a = 0100, b = 1100, f = 0000
# time =  385, oc = 000, a = 0100, b = 1101, f = 0001
# time =  390, oc = 000, a = 0100, b = 1110, f = 0010
# time =  395, oc = 000, a = 0100, b = 1111, f = 0011
# time =  400, oc = 000, a = 0101, b = 0000, f = 0101
# time =  405, oc = 000, a = 0101, b = 0001, f = 0110
# time =  410, oc = 000, a = 0101, b = 0010, f = 0111
# time =  415, oc = 000, a = 0101, b = 0011, f = 1000
# time =  420, oc = 000, a = 0101, b = 0100, f = 1001
# time =  425, oc = 000, a = 0101, b = 0101, f = 1010
# time =  430, oc = 000, a = 0101, b = 0110, f = 1011
# time =  435, oc = 000, a = 0101, b = 0111, f = 1100
# time =  440, oc = 000, a = 0101, b = 1000, f = 1101
# time =  445, oc = 000, a = 0101, b = 1001, f = 1110
# time =  450, oc = 000, a = 0101, b = 1010, f = 1111
# time =  455, oc = 000, a = 0101, b = 1011, f = 0000
# time =  460, oc = 000, a = 0101, b = 1100, f = 0001
# time =  465, oc = 000, a = 0101, b = 1101, f = 0010
# time =  470, oc = 000, a = 0101, b = 1110, f = 0011
# time =  475, oc = 000, a = 0101, b = 1111, f = 0100
# time =  480, oc = 000, a = 0110, b = 0000, f = 0110
# time =  485, oc = 000, a = 0110, b = 0001, f = 0111
# time =  490, oc = 000, a = 0110, b = 0010, f = 1000
# time =  495, oc = 000, a = 0110, b = 0011, f = 1001
# time =  500, oc = 000, a = 0110, b = 0100, f = 1010
# time =  505, oc = 000, a = 0110, b = 0101, f = 1011
# time =  510, oc = 000, a = 0110, b = 0110, f = 1100
# time =  515, oc = 000, a = 0110, b = 0111, f = 1101
# time =  520, oc = 000, a = 0110, b = 1000, f = 1110
# time =  525, oc = 000, a = 0110, b = 1001, f = 1111
# time =  530, oc = 000, a = 0110, b = 1010, f = 0000
# time =  535, oc = 000, a = 0110, b = 1011, f = 0001
# time =  540, oc = 000, a = 0110, b = 1100, f = 0010
# time =  545, oc = 000, a = 0110, b = 1101, f = 0011
# time =  550, oc = 000, a = 0110, b = 1110, f = 0100
# time =  555, oc = 000, a = 0110, b = 1111, f = 0101
# time =  560, oc = 000, a = 0111, b = 0000, f = 0111
# time =  565, oc = 000, a = 0111, b = 0001, f = 1000
# time =  570, oc = 000, a = 0111, b = 0010, f = 1001
# time =  575, oc = 000, a = 0111, b = 0011, f = 1010
# time =  580, oc = 000, a = 0111, b = 0100, f = 1011
# time =  585, oc = 000, a = 0111, b = 0101, f = 1100
# time =  590, oc = 000, a = 0111, b = 0110, f = 1101
# time =  595, oc = 000, a = 0111, b = 0111, f = 1110
# time =  600, oc = 000, a = 0111, b = 1000, f = 1111
# time =  605, oc = 000, a = 0111, b = 1001, f = 0000
# time =  610, oc = 000, a = 0111, b = 1010, f = 0001
# time =  615, oc = 000, a = 0111, b = 1011, f = 0010
# time =  620, oc = 000, a = 0111, b = 1100, f = 0011
# time =  625, oc = 000, a = 0111, b = 1101, f = 0100
# time =  630, oc = 000, a = 0111, b = 1110, f = 0101
# time =  635, oc = 000, a = 0111, b = 1111, f = 0110
# time =  640, oc = 000, a = 1000, b = 0000, f = 1000
# time =  645, oc = 000, a = 1000, b = 0001, f = 1001
# time =  650, oc = 000, a = 1000, b = 0010, f = 1010
# time =  655, oc = 000, a = 1000, b = 0011, f = 1011
# time =  660, oc = 000, a = 1000, b = 0100, f = 1100
# time =  665, oc = 000, a = 1000, b = 0101, f = 1101
# time =  670, oc = 000, a = 1000, b = 0110, f = 1110
# time =  675, oc = 000, a = 1000, b = 0111, f = 1111
# time =  680, oc = 000, a = 1000, b = 1000, f = 0000
# time =  685, oc = 000, a = 1000, b = 1001, f = 0001
# time =  690, oc = 000, a = 1000, b = 1010, f = 0010
# time =  695, oc = 000, a = 1000, b = 1011, f = 0011
# time =  700, oc = 000, a = 1000, b = 1100, f = 0100
# time =  705, oc = 000, a = 1000, b = 1101, f = 0101
# time =  710, oc = 000, a = 1000, b = 1110, f = 0110
# time =  715, oc = 000, a = 1000, b = 1111, f = 0111
# time =  720, oc = 000, a = 1001, b = 0000, f = 1001
# time =  725, oc = 000, a = 1001, b = 0001, f = 1010
# time =  730, oc = 000, a = 1001, b = 0010, f = 1011
# time =  735, oc = 000, a = 1001, b = 0011, f = 1100
# time =  740, oc = 000, a = 1001, b = 0100, f = 1101
# time =  745, oc = 000, a = 1001, b = 0101, f = 1110
# time =  750, oc = 000, a = 1001, b = 0110, f = 1111
# time =  755, oc = 000, a = 1001, b = 0111, f = 0000
# time =  760, oc = 000, a = 1001, b = 1000, f = 0001
# time =  765, oc = 000, a = 1001, b = 1001, f = 0010
# time =  770, oc = 000, a = 1001, b = 1010, f = 0011
# time =  775, oc = 000, a = 1001, b = 1011, f = 0100
# time =  780, oc = 000, a = 1001, b = 1100, f = 0101
# time =  785, oc = 000, a = 1001, b = 1101, f = 0110
# time =  790, oc = 000, a = 1001, b = 1110, f = 0111
# time =  795, oc = 000, a = 1001, b = 1111, f = 1000
# time =  800, oc = 000, a = 1010, b = 0000, f = 1010
# time =  805, oc = 000, a = 1010, b = 0001, f = 1011
# time =  810, oc = 000, a = 1010, b = 0010, f = 1100
# time =  815, oc = 000, a = 1010, b = 0011, f = 1101
# time =  820, oc = 000, a = 1010, b = 0100, f = 1110
# time =  825, oc = 000, a = 1010, b = 0101, f = 1111
# time =  830, oc = 000, a = 1010, b = 0110, f = 0000
# time =  835, oc = 000, a = 1010, b = 0111, f = 0001
# time =  840, oc = 000, a = 1010, b = 1000, f = 0010
# time =  845, oc = 000, a = 1010, b = 1001, f = 0011
# time =  850, oc = 000, a = 1010, b = 1010, f = 0100
# time =  855, oc = 000, a = 1010, b = 1011, f = 0101
# time =  860, oc = 000, a = 1010, b = 1100, f = 0110
# time =  865, oc = 000, a = 1010, b = 1101, f = 0111
# time =  870, oc = 000, a = 1010, b = 1110, f = 1000
# time =  875, oc = 000, a = 1010, b = 1111, f = 1001
# time =  880, oc = 000, a = 1011, b = 0000, f = 1011
# time =  885, oc = 000, a = 1011, b = 0001, f = 1100
# time =  890, oc = 000, a = 1011, b = 0010, f = 1101
# time =  895, oc = 000, a = 1011, b = 0011, f = 1110
# time =  900, oc = 000, a = 1011, b = 0100, f = 1111
# time =  905, oc = 000, a = 1011, b = 0101, f = 0000
# time =  910, oc = 000, a = 1011, b = 0110, f = 0001
# time =  915, oc = 000, a = 1011, b = 0111, f = 0010
# time =  920, oc = 000, a = 1011, b = 1000, f = 0011
# time =  925, oc = 000, a = 1011, b = 1001, f = 0100
# time =  930, oc = 000, a = 1011, b = 1010, f = 0101
# time =  935, oc = 000, a = 1011, b = 1011, f = 0110
# time =  940, oc = 000, a = 1011, b = 1100, f = 0111
# time =  945, oc = 000, a = 1011, b = 1101, f = 1000
# time =  950, oc = 000, a = 1011, b = 1110, f = 1001
# time =  955, oc = 000, a = 1011, b = 1111, f = 1010
# time =  960, oc = 000, a = 1100, b = 0000, f = 1100
# time =  965, oc = 000, a = 1100, b = 0001, f = 1101
# time =  970, oc = 000, a = 1100, b = 0010, f = 1110
# time =  975, oc = 000, a = 1100, b = 0011, f = 1111
# time =  980, oc = 000, a = 1100, b = 0100, f = 0000
# time =  985, oc = 000, a = 1100, b = 0101, f = 0001
# time =  990, oc = 000, a = 1100, b = 0110, f = 0010
# time =  995, oc = 000, a = 1100, b = 0111, f = 0011
# time = 1000, oc = 000, a = 1100, b = 1000, f = 0100
# time = 1005, oc = 000, a = 1100, b = 1001, f = 0101
# time = 1010, oc = 000, a = 1100, b = 1010, f = 0110
# time = 1015, oc = 000, a = 1100, b = 1011, f = 0111
# time = 1020, oc = 000, a = 1100, b = 1100, f = 1000
# time = 1025, oc = 000, a = 1100, b = 1101, f = 1001
# time = 1030, oc = 000, a = 1100, b = 1110, f = 1010
# time = 1035, oc = 000, a = 1100, b = 1111, f = 1011
# time = 1040, oc = 000, a = 1101, b = 0000, f = 1101
# time = 1045, oc = 000, a = 1101, b = 0001, f = 1110
# time = 1050, oc = 000, a = 1101, b = 0010, f = 1111
# time = 1055, oc = 000, a = 1101, b = 0011, f = 0000
# time = 1060, oc = 000, a = 1101, b = 0100, f = 0001
# time = 1065, oc = 000, a = 1101, b = 0101, f = 0010
# time = 1070, oc = 000, a = 1101, b = 0110, f = 0011
# time = 1075, oc = 000, a = 1101, b = 0111, f = 0100
# time = 1080, oc = 000, a = 1101, b = 1000, f = 0101
# time = 1085, oc = 000, a = 1101, b = 1001, f = 0110
# time = 1090, oc = 000, a = 1101, b = 1010, f = 0111
# time = 1095, oc = 000, a = 1101, b = 1011, f = 1000
# time = 1100, oc = 000, a = 1101, b = 1100, f = 1001
# time = 1105, oc = 000, a = 1101, b = 1101, f = 1010
# time = 1110, oc = 000, a = 1101, b = 1110, f = 1011
# time = 1115, oc = 000, a = 1101, b = 1111, f = 1100
# time = 1120, oc = 000, a = 1110, b = 0000, f = 1110
# time = 1125, oc = 000, a = 1110, b = 0001, f = 1111
# time = 1130, oc = 000, a = 1110, b = 0010, f = 0000
# time = 1135, oc = 000, a = 1110, b = 0011, f = 0001
# time = 1140, oc = 000, a = 1110, b = 0100, f = 0010
# time = 1145, oc = 000, a = 1110, b = 0101, f = 0011
# time = 1150, oc = 000, a = 1110, b = 0110, f = 0100
# time = 1155, oc = 000, a = 1110, b = 0111, f = 0101
# time = 1160, oc = 000, a = 1110, b = 1000, f = 0110
# time = 1165, oc = 000, a = 1110, b = 1001, f = 0111
# time = 1170, oc = 000, a = 1110, b = 1010, f = 1000
# time = 1175, oc = 000, a = 1110, b = 1011, f = 1001
# time = 1180, oc = 000, a = 1110, b = 1100, f = 1010
# time = 1185, oc = 000, a = 1110, b = 1101, f = 1011
# time = 1190, oc = 000, a = 1110, b = 1110, f = 1100
# time = 1195, oc = 000, a = 1110, b = 1111, f = 1101
# time = 1200, oc = 000, a = 1111, b = 0000, f = 1111
# time = 1205, oc = 000, a = 1111, b = 0001, f = 0000
# time = 1210, oc = 000, a = 1111, b = 0010, f = 0001
# time = 1215, oc = 000, a = 1111, b = 0011, f = 0010
# time = 1220, oc = 000, a = 1111, b = 0100, f = 0011
# time = 1225, oc = 000, a = 1111, b = 0101, f = 0100
# time = 1230, oc = 000, a = 1111, b = 0110, f = 0101
# time = 1235, oc = 000, a = 1111, b = 0111, f = 0110
# time = 1240, oc = 000, a = 1111, b = 1000, f = 0111
# time = 1245, oc = 000, a = 1111, b = 1001, f = 1000
# time = 1250, oc = 000, a = 1111, b = 1010, f = 1001
# time = 1255, oc = 000, a = 1111, b = 1011, f = 1010
# time = 1260, oc = 000, a = 1111, b = 1100, f = 1011
# time = 1265, oc = 000, a = 1111, b = 1101, f = 1100
# time = 1270, oc = 000, a = 1111, b = 1110, f = 1101
# time = 1275, oc = 000, a = 1111, b = 1111, f = 1110
# time = 1280, oc = 001, a = 0000, b = 0000, f = 0000
# time = 1285, oc = 001, a = 0000, b = 0001, f = 1111
# time = 1290, oc = 001, a = 0000, b = 0010, f = 1110
# time = 1295, oc = 001, a = 0000, b = 0011, f = 1101
# time = 1300, oc = 001, a = 0000, b = 0100, f = 1100
# time = 1305, oc = 001, a = 0000, b = 0101, f = 1011
# time = 1310, oc = 001, a = 0000, b = 0110, f = 1010
# time = 1315, oc = 001, a = 0000, b = 0111, f = 1001
# time = 1320, oc = 001, a = 0000, b = 1000, f = 1000
# time = 1325, oc = 001, a = 0000, b = 1001, f = 0111
# time = 1330, oc = 001, a = 0000, b = 1010, f = 0110
# time = 1335, oc = 001, a = 0000, b = 1011, f = 0101
# time = 1340, oc = 001, a = 0000, b = 1100, f = 0100
# time = 1345, oc = 001, a = 0000, b = 1101, f = 0011
# time = 1350, oc = 001, a = 0000, b = 1110, f = 0010
# time = 1355, oc = 001, a = 0000, b = 1111, f = 0001
# time = 1365, oc = 001, a = 0001, b = 0001, f = 0000
# time = 1370, oc = 001, a = 0001, b = 0010, f = 1111
# time = 1375, oc = 001, a = 0001, b = 0011, f = 1110
# time = 1380, oc = 001, a = 0001, b = 0100, f = 1101
# time = 1385, oc = 001, a = 0001, b = 0101, f = 1100
# time = 1390, oc = 001, a = 0001, b = 0110, f = 1011
# time = 1395, oc = 001, a = 0001, b = 0111, f = 1010
# time = 1400, oc = 001, a = 0001, b = 1000, f = 1001
# time = 1405, oc = 001, a = 0001, b = 1001, f = 1000
# time = 1410, oc = 001, a = 0001, b = 1010, f = 0111
# time = 1415, oc = 001, a = 0001, b = 1011, f = 0110
# time = 1420, oc = 001, a = 0001, b = 1100, f = 0101
# time = 1425, oc = 001, a = 0001, b = 1101, f = 0100
# time = 1430, oc = 001, a = 0001, b = 1110, f = 0011
# time = 1435, oc = 001, a = 0001, b = 1111, f = 0010
# time = 1445, oc = 001, a = 0010, b = 0001, f = 0001
# time = 1450, oc = 001, a = 0010, b = 0010, f = 0000
# time = 1455, oc = 001, a = 0010, b = 0011, f = 1111
# time = 1460, oc = 001, a = 0010, b = 0100, f = 1110
# time = 1465, oc = 001, a = 0010, b = 0101, f = 1101
# time = 1470, oc = 001, a = 0010, b = 0110, f = 1100
# time = 1475, oc = 001, a = 0010, b = 0111, f = 1011
# time = 1480, oc = 001, a = 0010, b = 1000, f = 1010
# time = 1485, oc = 001, a = 0010, b = 1001, f = 1001
# time = 1490, oc = 001, a = 0010, b = 1010, f = 1000
# time = 1495, oc = 001, a = 0010, b = 1011, f = 0111
# time = 1500, oc = 001, a = 0010, b = 1100, f = 0110
# time = 1505, oc = 001, a = 0010, b = 1101, f = 0101
# time = 1510, oc = 001, a = 0010, b = 1110, f = 0100
# time = 1515, oc = 001, a = 0010, b = 1111, f = 0011
# time = 1525, oc = 001, a = 0011, b = 0001, f = 0010
# time = 1530, oc = 001, a = 0011, b = 0010, f = 0001
# time = 1535, oc = 001, a = 0011, b = 0011, f = 0000
# time = 1540, oc = 001, a = 0011, b = 0100, f = 1111
# time = 1545, oc = 001, a = 0011, b = 0101, f = 1110
# time = 1550, oc = 001, a = 0011, b = 0110, f = 1101
# time = 1555, oc = 001, a = 0011, b = 0111, f = 1100
# time = 1560, oc = 001, a = 0011, b = 1000, f = 1011
# time = 1565, oc = 001, a = 0011, b = 1001, f = 1010
# time = 1570, oc = 001, a = 0011, b = 1010, f = 1001
# time = 1575, oc = 001, a = 0011, b = 1011, f = 1000
# time = 1580, oc = 001, a = 0011, b = 1100, f = 0111
# time = 1585, oc = 001, a = 0011, b = 1101, f = 0110
# time = 1590, oc = 001, a = 0011, b = 1110, f = 0101
# time = 1595, oc = 001, a = 0011, b = 1111, f = 0100
# time = 1605, oc = 001, a = 0100, b = 0001, f = 0011
# time = 1610, oc = 001, a = 0100, b = 0010, f = 0010
# time = 1615, oc = 001, a = 0100, b = 0011, f = 0001
# time = 1620, oc = 001, a = 0100, b = 0100, f = 0000
# time = 1625, oc = 001, a = 0100, b = 0101, f = 1111
# time = 1630, oc = 001, a = 0100, b = 0110, f = 1110
# time = 1635, oc = 001, a = 0100, b = 0111, f = 1101
# time = 1640, oc = 001, a = 0100, b = 1000, f = 1100
# time = 1645, oc = 001, a = 0100, b = 1001, f = 1011
# time = 1650, oc = 001, a = 0100, b = 1010, f = 1010
# time = 1655, oc = 001, a = 0100, b = 1011, f = 1001
# time = 1660, oc = 001, a = 0100, b = 1100, f = 1000
# time = 1665, oc = 001, a = 0100, b = 1101, f = 0111
# time = 1670, oc = 001, a = 0100, b = 1110, f = 0110
# time = 1675, oc = 001, a = 0100, b = 1111, f = 0101
# time = 1685, oc = 001, a = 0101, b = 0001, f = 0100
# time = 1690, oc = 001, a = 0101, b = 0010, f = 0011
# time = 1695, oc = 001, a = 0101, b = 0011, f = 0010
# time = 1700, oc = 001, a = 0101, b = 0100, f = 0001
# time = 1705, oc = 001, a = 0101, b = 0101, f = 0000
# time = 1710, oc = 001, a = 0101, b = 0110, f = 1111
# time = 1715, oc = 001, a = 0101, b = 0111, f = 1110
# time = 1720, oc = 001, a = 0101, b = 1000, f = 1101
# time = 1725, oc = 001, a = 0101, b = 1001, f = 1100
# time = 1730, oc = 001, a = 0101, b = 1010, f = 1011
# time = 1735, oc = 001, a = 0101, b = 1011, f = 1010
# time = 1740, oc = 001, a = 0101, b = 1100, f = 1001
# time = 1745, oc = 001, a = 0101, b = 1101, f = 1000
# time = 1750, oc = 001, a = 0101, b = 1110, f = 0111
# time = 1755, oc = 001, a = 0101, b = 1111, f = 0110
# time = 1765, oc = 001, a = 0110, b = 0001, f = 0101
# time = 1770, oc = 001, a = 0110, b = 0010, f = 0100
# time = 1775, oc = 001, a = 0110, b = 0011, f = 0011
# time = 1780, oc = 001, a = 0110, b = 0100, f = 0010
# time = 1785, oc = 001, a = 0110, b = 0101, f = 0001
# time = 1790, oc = 001, a = 0110, b = 0110, f = 0000
# time = 1795, oc = 001, a = 0110, b = 0111, f = 1111
# time = 1800, oc = 001, a = 0110, b = 1000, f = 1110
# time = 1805, oc = 001, a = 0110, b = 1001, f = 1101
# time = 1810, oc = 001, a = 0110, b = 1010, f = 1100
# time = 1815, oc = 001, a = 0110, b = 1011, f = 1011
# time = 1820, oc = 001, a = 0110, b = 1100, f = 1010
# time = 1825, oc = 001, a = 0110, b = 1101, f = 1001
# time = 1830, oc = 001, a = 0110, b = 1110, f = 1000
# time = 1835, oc = 001, a = 0110, b = 1111, f = 0111
# time = 1845, oc = 001, a = 0111, b = 0001, f = 0110
# time = 1850, oc = 001, a = 0111, b = 0010, f = 0101
# time = 1855, oc = 001, a = 0111, b = 0011, f = 0100
# time = 1860, oc = 001, a = 0111, b = 0100, f = 0011
# time = 1865, oc = 001, a = 0111, b = 0101, f = 0010
# time = 1870, oc = 001, a = 0111, b = 0110, f = 0001
# time = 1875, oc = 001, a = 0111, b = 0111, f = 0000
# time = 1880, oc = 001, a = 0111, b = 1000, f = 1111
# time = 1885, oc = 001, a = 0111, b = 1001, f = 1110
# time = 1890, oc = 001, a = 0111, b = 1010, f = 1101
# time = 1895, oc = 001, a = 0111, b = 1011, f = 1100
# time = 1900, oc = 001, a = 0111, b = 1100, f = 1011
# time = 1905, oc = 001, a = 0111, b = 1101, f = 1010
# time = 1910, oc = 001, a = 0111, b = 1110, f = 1001
# time = 1915, oc = 001, a = 0111, b = 1111, f = 1000
# time = 1925, oc = 001, a = 1000, b = 0001, f = 0111
# time = 1930, oc = 001, a = 1000, b = 0010, f = 0110
# time = 1935, oc = 001, a = 1000, b = 0011, f = 0101
# time = 1940, oc = 001, a = 1000, b = 0100, f = 0100
# time = 1945, oc = 001, a = 1000, b = 0101, f = 0011
# time = 1950, oc = 001, a = 1000, b = 0110, f = 0010
# time = 1955, oc = 001, a = 1000, b = 0111, f = 0001
# time = 1960, oc = 001, a = 1000, b = 1000, f = 0000
# time = 1965, oc = 001, a = 1000, b = 1001, f = 1111
# time = 1970, oc = 001, a = 1000, b = 1010, f = 1110
# time = 1975, oc = 001, a = 1000, b = 1011, f = 1101
# time = 1980, oc = 001, a = 1000, b = 1100, f = 1100
# time = 1985, oc = 001, a = 1000, b = 1101, f = 1011
# time = 1990, oc = 001, a = 1000, b = 1110, f = 1010
# time = 1995, oc = 001, a = 1000, b = 1111, f = 1001
# time = 2005, oc = 001, a = 1001, b = 0001, f = 1000
# time = 2010, oc = 001, a = 1001, b = 0010, f = 0111
# time = 2015, oc = 001, a = 1001, b = 0011, f = 0110
# time = 2020, oc = 001, a = 1001, b = 0100, f = 0101
# time = 2025, oc = 001, a = 1001, b = 0101, f = 0100
# time = 2030, oc = 001, a = 1001, b = 0110, f = 0011
# time = 2035, oc = 001, a = 1001, b = 0111, f = 0010
# time = 2040, oc = 001, a = 1001, b = 1000, f = 0001
# time = 2045, oc = 001, a = 1001, b = 1001, f = 0000
# time = 2050, oc = 001, a = 1001, b = 1010, f = 1111
# time = 2055, oc = 001, a = 1001, b = 1011, f = 1110
# time = 2060, oc = 001, a = 1001, b = 1100, f = 1101
# time = 2065, oc = 001, a = 1001, b = 1101, f = 1100
# time = 2070, oc = 001, a = 1001, b = 1110, f = 1011
# time = 2075, oc = 001, a = 1001, b = 1111, f = 1010
# time = 2085, oc = 001, a = 1010, b = 0001, f = 1001
# time = 2090, oc = 001, a = 1010, b = 0010, f = 1000
# time = 2095, oc = 001, a = 1010, b = 0011, f = 0111
# time = 2100, oc = 001, a = 1010, b = 0100, f = 0110
# time = 2105, oc = 001, a = 1010, b = 0101, f = 0101
# time = 2110, oc = 001, a = 1010, b = 0110, f = 0100
# time = 2115, oc = 001, a = 1010, b = 0111, f = 0011
# time = 2120, oc = 001, a = 1010, b = 1000, f = 0010
# time = 2125, oc = 001, a = 1010, b = 1001, f = 0001
# time = 2130, oc = 001, a = 1010, b = 1010, f = 0000
# time = 2135, oc = 001, a = 1010, b = 1011, f = 1111
# time = 2140, oc = 001, a = 1010, b = 1100, f = 1110
# time = 2145, oc = 001, a = 1010, b = 1101, f = 1101
# time = 2150, oc = 001, a = 1010, b = 1110, f = 1100
# time = 2155, oc = 001, a = 1010, b = 1111, f = 1011
# time = 2165, oc = 001, a = 1011, b = 0001, f = 1010
# time = 2170, oc = 001, a = 1011, b = 0010, f = 1001
# time = 2175, oc = 001, a = 1011, b = 0011, f = 1000
# time = 2180, oc = 001, a = 1011, b = 0100, f = 0111
# time = 2185, oc = 001, a = 1011, b = 0101, f = 0110
# time = 2190, oc = 001, a = 1011, b = 0110, f = 0101
# time = 2195, oc = 001, a = 1011, b = 0111, f = 0100
# time = 2200, oc = 001, a = 1011, b = 1000, f = 0011
# time = 2205, oc = 001, a = 1011, b = 1001, f = 0010
# time = 2210, oc = 001, a = 1011, b = 1010, f = 0001
# time = 2215, oc = 001, a = 1011, b = 1011, f = 0000
# time = 2220, oc = 001, a = 1011, b = 1100, f = 1111
# time = 2225, oc = 001, a = 1011, b = 1101, f = 1110
# time = 2230, oc = 001, a = 1011, b = 1110, f = 1101
# time = 2235, oc = 001, a = 1011, b = 1111, f = 1100
# time = 2245, oc = 001, a = 1100, b = 0001, f = 1011
# time = 2250, oc = 001, a = 1100, b = 0010, f = 1010
# time = 2255, oc = 001, a = 1100, b = 0011, f = 1001
# time = 2260, oc = 001, a = 1100, b = 0100, f = 1000
# time = 2265, oc = 001, a = 1100, b = 0101, f = 0111
# time = 2270, oc = 001, a = 1100, b = 0110, f = 0110
# time = 2275, oc = 001, a = 1100, b = 0111, f = 0101
# time = 2280, oc = 001, a = 1100, b = 1000, f = 0100
# time = 2285, oc = 001, a = 1100, b = 1001, f = 0011
# time = 2290, oc = 001, a = 1100, b = 1010, f = 0010
# time = 2295, oc = 001, a = 1100, b = 1011, f = 0001
# time = 2300, oc = 001, a = 1100, b = 1100, f = 0000
# time = 2305, oc = 001, a = 1100, b = 1101, f = 1111
# time = 2310, oc = 001, a = 1100, b = 1110, f = 1110
# time = 2315, oc = 001, a = 1100, b = 1111, f = 1101
# time = 2325, oc = 001, a = 1101, b = 0001, f = 1100
# time = 2330, oc = 001, a = 1101, b = 0010, f = 1011
# time = 2335, oc = 001, a = 1101, b = 0011, f = 1010
# time = 2340, oc = 001, a = 1101, b = 0100, f = 1001
# time = 2345, oc = 001, a = 1101, b = 0101, f = 1000
# time = 2350, oc = 001, a = 1101, b = 0110, f = 0111
# time = 2355, oc = 001, a = 1101, b = 0111, f = 0110
# time = 2360, oc = 001, a = 1101, b = 1000, f = 0101
# time = 2365, oc = 001, a = 1101, b = 1001, f = 0100
# time = 2370, oc = 001, a = 1101, b = 1010, f = 0011
# time = 2375, oc = 001, a = 1101, b = 1011, f = 0010
# time = 2380, oc = 001, a = 1101, b = 1100, f = 0001
# time = 2385, oc = 001, a = 1101, b = 1101, f = 0000
# time = 2390, oc = 001, a = 1101, b = 1110, f = 1111
# time = 2395, oc = 001, a = 1101, b = 1111, f = 1110
# time = 2405, oc = 001, a = 1110, b = 0001, f = 1101
# time = 2410, oc = 001, a = 1110, b = 0010, f = 1100
# time = 2415, oc = 001, a = 1110, b = 0011, f = 1011
# time = 2420, oc = 001, a = 1110, b = 0100, f = 1010
# time = 2425, oc = 001, a = 1110, b = 0101, f = 1001
# time = 2430, oc = 001, a = 1110, b = 0110, f = 1000
# time = 2435, oc = 001, a = 1110, b = 0111, f = 0111
# time = 2440, oc = 001, a = 1110, b = 1000, f = 0110
# time = 2445, oc = 001, a = 1110, b = 1001, f = 0101
# time = 2450, oc = 001, a = 1110, b = 1010, f = 0100
# time = 2455, oc = 001, a = 1110, b = 1011, f = 0011
# time = 2460, oc = 001, a = 1110, b = 1100, f = 0010
# time = 2465, oc = 001, a = 1110, b = 1101, f = 0001
# time = 2470, oc = 001, a = 1110, b = 1110, f = 0000
# time = 2475, oc = 001, a = 1110, b = 1111, f = 1111
# time = 2485, oc = 001, a = 1111, b = 0001, f = 1110
# time = 2490, oc = 001, a = 1111, b = 0010, f = 1101
# time = 2495, oc = 001, a = 1111, b = 0011, f = 1100
